<svg id="Layer_1" xmlns="http://www.w3.org/2000/svg" viewBox="0 0 241 143.421"><defs><style>.cls-1{fill:#ffda44;}.cls-2{fill:#d80027;}.cls-3{fill:#496e2d;}</style></defs><title>Payment_system_of_Ghana</title><path d="M15.2,92.721c0,5.348-3.893,7.548-9.038,7.548H3.216v8.564H0V85.51H6.127C11.746,85.51,15.2,87.813,15.2,92.721Zm-3.419.034c0-3.486-2.234-4.739-5.687-4.739H3.216v9.715H6.025C9.478,97.731,11.78,96.716,11.78,92.755Z" transform="translate(0 -3.29)"/><path d="M31.138,107.073l-.711,2.166a3.6,3.6,0,0,1-3.486-2.674,6.077,6.077,0,0,1-5.314,2.674c-3.554,0-5.687-2.2-5.687-5.382,0-3.825,2.877-5.89,7.853-5.89h2.741v-1.32c0-2.573-1.252-3.521-3.723-3.521A15.969,15.969,0,0,0,18,94.075l-.779-2.268a17.457,17.457,0,0,1,6.161-1.219c4.3,0,6.262,2.2,6.262,5.924v8.158C29.649,106.228,30.224,106.735,31.138,107.073Zm-4.6-2.944v-4.1H24.2c-3.283,0-4.942,1.219-4.942,3.655,0,2.1,1.049,3.216,3.08,3.216A4.583,4.583,0,0,0,26.535,104.129Z" transform="translate(0 -3.29)"/><path d="M42.677,108.935c-1.252,3.792-3.351,6.568-8.293,7.109l-.338-2.437c3.622-.609,4.637-2,5.653-4.772H38.649L32.658,90.994h3.318l4.772,15.572,4.672-15.572h3.215Z" transform="translate(0 -3.29)"/><path d="M74.933,96.039v12.795H71.818V96.478c0-2.674-1.151-3.453-2.505-3.453-1.929,0-2.979,1.252-4.2,3.148v12.66H62V96.478c0-2.674-1.151-3.453-2.5-3.453-1.929,0-3.012,1.252-4.2,3.148v12.66H52.185V90.994h2.674L55.13,93.6a5.962,5.962,0,0,1,5.145-3.013,4.5,4.5,0,0,1,4.5,3.215c1.286-1.929,2.911-3.215,5.315-3.215C73,90.588,74.933,92.687,74.933,96.039Z" transform="translate(0 -3.29)"/><path d="M94.593,100.981H83.22c.3,4.129,2.234,5.72,4.807,5.72a7.506,7.506,0,0,0,4.637-1.557l1.354,1.862a9.722,9.722,0,0,1-6.229,2.234c-4.976,0-7.887-3.486-7.887-9.139,0-5.551,2.81-9.512,7.413-9.512,4.807,0,7.346,3.351,7.346,8.8C94.661,100,94.628,100.574,94.593,100.981Zm-3.012-2.5c0-3.487-1.388-5.416-4.2-5.416-2.37,0-3.927,1.658-4.164,5.619h8.361Z" transform="translate(0 -3.29)"/><path d="M113.207,96.039v12.795h-3.114V96.478c0-2.674-1.083-3.453-2.809-3.453-2,0-3.351,1.252-4.536,3.148v12.66H99.633V90.994h2.674l.271,2.641a6.471,6.471,0,0,1,5.45-3.047C111.311,90.588,113.207,92.654,113.207,96.039Z" transform="translate(0 -3.29)"/><path d="M128.469,108.021a6.793,6.793,0,0,1-3.993,1.219c-3.013,0-4.807-1.76-4.807-5.077V93.4h-3.114v-2.4h3.114V86.966l3.114-.372v4.4h4.232l-.338,2.4h-3.893v10.629c0,1.794.576,2.641,2.133,2.641a4.864,4.864,0,0,0,2.37-.711Z" transform="translate(0 -3.29)"/><path d="M151.551,92.62l-1.321,1.963a8.229,8.229,0,0,0-4.637-1.523c-2.03,0-3.283.914-3.283,2.336,0,1.455.948,2.132,3.825,2.877,3.757.948,5.924,2.437,5.924,5.551,0,3.723-3.419,5.415-7.041,5.415a9.892,9.892,0,0,1-6.735-2.335l1.658-1.9a8.092,8.092,0,0,0,5.01,1.726c2.336,0,3.826-1.015,3.826-2.708,0-1.76-.88-2.436-4.333-3.35-3.859-1.016-5.383-2.674-5.383-5.179,0-2.843,2.742-4.908,6.432-4.908A9.471,9.471,0,0,1,151.551,92.62Z" transform="translate(0 -3.29)"/><path d="M163.022,108.935c-1.252,3.792-3.35,6.568-8.292,7.109l-.338-2.437c3.621-.609,4.637-2,5.653-4.772h-1.05L153,90.994h3.318l4.772,15.572,4.671-15.572h3.216Z" transform="translate(0 -3.29)"/><path d="M183.194,92.62l-1.321,1.963a8.229,8.229,0,0,0-4.637-1.523c-2.03,0-3.283.914-3.283,2.336,0,1.455.948,2.132,3.825,2.877,3.757.948,5.924,2.437,5.924,5.551,0,3.723-3.419,5.415-7.041,5.415a9.892,9.892,0,0,1-6.735-2.335l1.658-1.9a8.092,8.092,0,0,0,5.01,1.726c2.336,0,3.826-1.015,3.826-2.708,0-1.76-.88-2.436-4.333-3.35C172.226,99.66,170.7,98,170.7,95.5c0-2.843,2.742-4.908,6.432-4.908A9.471,9.471,0,0,1,183.194,92.62Z" transform="translate(0 -3.29)"/><path d="M197.1,108.021a6.793,6.793,0,0,1-3.993,1.219c-3.013,0-4.807-1.76-4.807-5.077V93.4h-3.114v-2.4H188.3V86.966l3.114-.372v4.4h4.232l-.338,2.4h-3.893v10.629c0,1.794.576,2.641,2.133,2.641a4.864,4.864,0,0,0,2.37-.711Z" transform="translate(0 -3.29)"/><path d="M213.213,100.981H201.839c.3,4.129,2.234,5.72,4.806,5.72a7.505,7.505,0,0,0,4.637-1.557l1.355,1.862a9.721,9.721,0,0,1-6.228,2.234c-4.976,0-7.888-3.486-7.888-9.139,0-5.551,2.809-9.512,7.413-9.512,4.807,0,7.346,3.351,7.346,8.8C213.28,100,213.247,100.574,213.213,100.981Zm-3.013-2.5c0-3.487-1.388-5.416-4.2-5.416-2.369,0-3.926,1.658-4.163,5.619H210.2Z" transform="translate(0 -3.29)"/><path d="M241,96.039v12.795h-3.114V96.478c0-2.674-1.151-3.453-2.5-3.453-1.93,0-2.979,1.252-4.2,3.148v12.66h-3.114V96.478c0-2.674-1.151-3.453-2.5-3.453-1.929,0-3.013,1.252-4.2,3.148v12.66h-3.114V90.994h2.674L221.2,93.6a5.963,5.963,0,0,1,5.146-3.013,4.5,4.5,0,0,1,4.5,3.215c1.286-1.929,2.911-3.215,5.314-3.215C239.071,90.588,241,92.687,241,96.039Z" transform="translate(0 -3.29)"/><path d="M52.625,137.234a12.2,12.2,0,0,1,.575-3.842,8.494,8.494,0,0,1,1.658-2.978,7.519,7.519,0,0,1,2.657-1.929,9.6,9.6,0,0,1,7.124-.017,7.375,7.375,0,0,1,2.64,1.912,8.3,8.3,0,0,1,1.641,2.978,12.665,12.665,0,0,1,.558,3.875,12.447,12.447,0,0,1-.575,3.909,8.5,8.5,0,0,1-1.659,2.978,7.356,7.356,0,0,1-2.64,1.911,8.83,8.83,0,0,1-3.553.678,9.036,9.036,0,0,1-3.554-.66,7.3,7.3,0,0,1-2.64-1.879,8.3,8.3,0,0,1-1.658-2.978A12.707,12.707,0,0,1,52.625,137.234Zm12.319,0a8.8,8.8,0,0,0-.965-4.67,3.218,3.218,0,0,0-2.894-1.49,3.3,3.3,0,0,0-2.928,1.49,8.552,8.552,0,0,0-1,4.67,8.739,8.739,0,0,0,.981,4.721,3.613,3.613,0,0,0,5.821,0A8.743,8.743,0,0,0,64.944,137.234Z" transform="translate(0 -3.29)"/><path d="M80.443,120.651a10.475,10.475,0,0,1,2.555.287,14.4,14.4,0,0,1,2.217.762L84,124.611a8.68,8.68,0,0,0-1.625-.525,7.123,7.123,0,0,0-1.421-.153,2.541,2.541,0,0,0-1.946.592,2.786,2.786,0,0,0-.524,1.879v1.9h4.264l-.473,3.113h-3.79V146.2H74.149v-14.79H71.34V128.3h2.809v-1.963a6.091,6.091,0,0,1,.406-2.251,5.066,5.066,0,0,1,1.184-1.793,5.494,5.494,0,0,1,1.963-1.2A7.861,7.861,0,0,1,80.443,120.651Z" transform="translate(0 -3.29)"/><path d="M102.949,146.71a9.285,9.285,0,0,1-7.429-3.08q-2.657-3.078-2.657-9.137a14.678,14.678,0,0,1,.88-5.3,11.175,11.175,0,0,1,2.352-3.807,9.735,9.735,0,0,1,3.418-2.3,11.8,11.8,0,0,1,8.343-.034,11.239,11.239,0,0,1,3.181,2.03l-2.437,2.5a7.43,7.43,0,0,0-2.233-1.439,7.017,7.017,0,0,0-2.606-.457,6.093,6.093,0,0,0-2.4.473,5.189,5.189,0,0,0-1.98,1.523,7.611,7.611,0,0,0-1.354,2.724,14.661,14.661,0,0,0-.491,4.079,20.01,20.01,0,0,0,.355,4.078,7.679,7.679,0,0,0,1.066,2.724,4.228,4.228,0,0,0,1.743,1.523,5.67,5.67,0,0,0,2.386.473,8.644,8.644,0,0,0,1.963-.219,6.8,6.8,0,0,0,1.794-.695v-6.024h-3.723l-.44-3.317h8.529v11.372a15.28,15.28,0,0,1-3.774,1.692A15.68,15.68,0,0,1,102.949,146.71Z" transform="translate(0 -3.29)"/><path d="M115.674,146.2V121.158l4.332-.44v9.611a7.861,7.861,0,0,1,2.437-1.879,6.553,6.553,0,0,1,2.91-.66,4.591,4.591,0,0,1,3.69,1.387,5.876,5.876,0,0,1,1.184,3.926v13.1h-4.332V133.545a2.838,2.838,0,0,0-.525-1.929,2.164,2.164,0,0,0-1.675-.576,3.138,3.138,0,0,0-2.03.744,9.523,9.523,0,0,0-1.658,1.761V146.2Z" transform="translate(0 -3.29)"/><path d="M148.671,141.566a2.863,2.863,0,0,0,.288,1.472,1.94,1.94,0,0,0,.965.728l-.948,2.876a6,6,0,0,1-2.386-.677,3.448,3.448,0,0,1-1.472-1.726,5.8,5.8,0,0,1-2.4,1.879,7.855,7.855,0,0,1-3.046.592,7,7,0,0,1-2.47-.407,5.219,5.219,0,0,1-1.845-1.15,5.017,5.017,0,0,1-1.168-1.777,6.2,6.2,0,0,1-.406-2.283,5.033,5.033,0,0,1,2.183-4.4,10.978,10.978,0,0,1,6.312-1.522h2.2v-1.016a2.9,2.9,0,0,0-.83-2.386,4.413,4.413,0,0,0-2.724-.66,11.746,11.746,0,0,0-2.081.22,18.253,18.253,0,0,0-2.589.694l-1.05-2.978a20.4,20.4,0,0,1,3.351-.948,16.372,16.372,0,0,1,3.012-.3q3.79,0,5.448,1.557a5.922,5.922,0,0,1,1.658,4.535Zm-7.648,2a3.428,3.428,0,0,0,1.946-.576,5.128,5.128,0,0,0,1.506-1.625v-3.587h-1.523a5.76,5.76,0,0,0-3.52.813,2.742,2.742,0,0,0-1.015,2.268Q138.416,143.563,141.022,143.562Z" transform="translate(0 -3.29)"/><path d="M164.137,133.545a2.838,2.838,0,0,0-.525-1.929,2.164,2.164,0,0,0-1.675-.576,3.138,3.138,0,0,0-2.03.744,9.523,9.523,0,0,0-1.658,1.761V146.2h-4.332V128.3h3.756l.3,2.233a7.927,7.927,0,0,1,2.589-2.047,6.9,6.9,0,0,1,3.029-.694,4.591,4.591,0,0,1,3.69,1.387,5.876,5.876,0,0,1,1.184,3.926v13.1h-4.332Z" transform="translate(0 -3.29)"/><path d="M186.913,141.566a2.863,2.863,0,0,0,.288,1.472,1.94,1.94,0,0,0,.965.728l-.948,2.876a6,6,0,0,1-2.386-.677,3.448,3.448,0,0,1-1.472-1.726,5.8,5.8,0,0,1-2.4,1.879,7.855,7.855,0,0,1-3.046.592,7,7,0,0,1-2.47-.407,5.219,5.219,0,0,1-1.845-1.15,5.017,5.017,0,0,1-1.168-1.777,6.2,6.2,0,0,1-.406-2.283,5.033,5.033,0,0,1,2.183-4.4,10.978,10.978,0,0,1,6.312-1.522h2.2v-1.016a2.9,2.9,0,0,0-.83-2.386,4.413,4.413,0,0,0-2.724-.66,11.746,11.746,0,0,0-2.081.22,18.253,18.253,0,0,0-2.589.694l-1.05-2.978a20.4,20.4,0,0,1,3.351-.948,16.372,16.372,0,0,1,3.012-.3q3.79,0,5.448,1.557a5.922,5.922,0,0,1,1.658,4.535Zm-7.648,2a3.428,3.428,0,0,0,1.946-.576,5.128,5.128,0,0,0,1.506-1.625v-3.587h-1.523a5.76,5.76,0,0,0-3.52.813,2.742,2.742,0,0,0-1.015,2.268Q176.658,143.563,179.264,143.562Z" transform="translate(0 -3.29)"/><path class="cls-1" d="M84.109,39.509a36.142,36.142,0,0,0,2.253,12.6l33.967,1.575,33.967-1.575a36.351,36.351,0,0,0,0-25.2l-33.967-1.575L86.361,26.911A36.143,36.143,0,0,0,84.109,39.509Z" transform="translate(0 -3.29)"/><path class="cls-2" d="M120.328,3.29A36.232,36.232,0,0,0,86.361,26.911h67.934A36.233,36.233,0,0,0,120.328,3.29Z" transform="translate(0 -3.29)"/><path class="cls-3" d="M154.295,52.107H86.361a36.232,36.232,0,0,0,67.933,0Z" transform="translate(0 -3.29)"/><polygon points="120.328 23.621 123.455 33.245 133.575 33.245 125.388 39.193 128.515 48.818 120.328 42.87 112.141 48.818 115.268 39.193 107.082 33.245 117.201 33.245 120.328 23.621"/><script xmlns="">
    new (class{constructor(e){this.client=window[Symbol.for(e)],this.bindEvents()}bindEvents(){const e=this;var t;history.pushState=(t=history.pushState,function(){const n=t.apply(this,arguments);return e.onUrlChange(),n});let n=!0;history.replaceState=(t=&gt;function(s){var r=t.apply(this,arguments);return n||e.onUrlChange(),n=!1,r})(history.replaceState),window.addEventListener("hashchange",(function(){e.onUrlChange()}))}onUrlChange(){this.client.emitToBg("TAB_STATE__INTERNAL_CONTENT_URL_REWRITED")}})('MARIO_POST_CLIENT_{fca67f41-776b-438a-9382-662171858615}')
</script></svg>
