<svg id="Layer_1" xmlns="http://www.w3.org/2000/svg" viewBox="0 0 237.155 141.132"><defs><style>.cls-1{fill:#f0f0f0;}.cls-2{fill:#d80027;}.cls-3{fill:#6da544;}.cls-4{fill:#ff9811;}</style></defs><title>Payment_system_of_Mexico</title><path d="M16.708,91.49c0,5.263-3.83,7.428-8.893,7.428h-2.9v8.428H1.753V84.4H7.782C13.312,84.4,16.708,86.66,16.708,91.49Zm-3.363.033c0-3.431-2.2-4.663-5.6-4.663H4.917v9.56H7.682C11.08,96.419,13.345,95.42,13.345,91.523Z" transform="translate(-1.753 -3.485)"/><path d="M32.394,105.613l-.7,2.132a3.537,3.537,0,0,1-3.431-2.631,5.98,5.98,0,0,1-5.229,2.631c-3.5,0-5.6-2.165-5.6-5.3,0-3.764,2.83-5.8,7.728-5.8h2.7v-1.3c0-2.532-1.232-3.465-3.664-3.465a15.717,15.717,0,0,0-4.73.933L18.7,90.59a17.172,17.172,0,0,1,6.063-1.2c4.23,0,6.162,2.165,6.162,5.829v8.028C30.929,104.781,31.5,105.28,32.394,105.613Zm-4.529-2.9v-4.03h-2.3c-3.23,0-4.863,1.2-4.863,3.6,0,2.065,1.033,3.165,3.031,3.165A4.512,4.512,0,0,0,27.865,102.715Z" transform="translate(-1.753 -3.485)"/><path d="M43.749,107.445c-1.232,3.731-3.3,6.463-8.161,7l-.333-2.4c3.564-.6,4.563-1.965,5.563-4.7H39.786l-5.9-17.555h3.264l4.7,15.323,4.6-15.323h3.164Z" transform="translate(-1.753 -3.485)"/><path d="M75.49,94.754v12.591H72.425V95.187c0-2.632-1.133-3.4-2.465-3.4-1.9,0-2.932,1.232-4.131,3.1v12.458H62.765V95.187c0-2.632-1.132-3.4-2.465-3.4-1.9,0-2.964,1.232-4.13,3.1v12.458H53.106V89.791h2.632L56,92.356a5.869,5.869,0,0,1,5.063-2.965A4.425,4.425,0,0,1,65.5,92.555c1.266-1.9,2.864-3.164,5.229-3.164C73.591,89.391,75.49,91.457,75.49,94.754Z" transform="translate(-1.753 -3.485)"/><path d="M94.837,99.618H83.646c.3,4.063,2.2,5.629,4.729,5.629a7.387,7.387,0,0,0,4.563-1.532l1.332,1.832a9.566,9.566,0,0,1-6.129,2.2c-4.9,0-7.762-3.431-7.762-8.993,0-5.463,2.766-9.36,7.295-9.36,4.73,0,7.229,3.3,7.229,8.66C94.9,98.651,94.871,99.217,94.837,99.618Zm-2.965-2.465c0-3.432-1.365-5.33-4.13-5.33-2.332,0-3.864,1.632-4.1,5.529h8.227Z" transform="translate(-1.753 -3.485)"/><path d="M113.154,94.754v12.591h-3.064V95.187c0-2.632-1.066-3.4-2.765-3.4-1.966,0-3.3,1.232-4.464,3.1v12.458H99.8V89.791h2.632l.267,2.6a6.368,6.368,0,0,1,5.363-3C111.289,89.391,113.154,91.423,113.154,94.754Z" transform="translate(-1.753 -3.485)"/><path d="M128.172,106.545a6.684,6.684,0,0,1-3.93,1.2c-2.965,0-4.73-1.731-4.73-5V92.156h-3.064V89.791h3.064V85.827l3.064-.366v4.33h4.164l-.333,2.365h-3.831v10.459c0,1.766.566,2.6,2.1,2.6a4.787,4.787,0,0,0,2.332-.7Z" transform="translate(-1.753 -3.485)"/><path d="M150.886,91.39l-1.3,1.932a8.1,8.1,0,0,0-4.563-1.5c-2,0-3.23.9-3.23,2.3,0,1.432.933,2.1,3.764,2.831,3.7.933,5.829,2.4,5.829,5.463,0,3.664-3.364,5.329-6.929,5.329a9.734,9.734,0,0,1-6.628-2.3l1.632-1.865a7.963,7.963,0,0,0,4.93,1.7c2.3,0,3.765-1,3.765-2.665,0-1.731-.866-2.4-4.264-3.3-3.8-1-5.3-2.632-5.3-5.1,0-2.8,2.7-4.83,6.329-4.83A9.32,9.32,0,0,1,150.886,91.39Z" transform="translate(-1.753 -3.485)"/><path d="M162.174,107.445c-1.232,3.731-3.3,6.463-8.16,7l-.333-2.4c3.563-.6,4.563-1.965,5.563-4.7H158.21l-5.9-17.555h3.265l4.7,15.323,4.6-15.323h3.165Z" transform="translate(-1.753 -3.485)"/><path d="M182.025,91.39l-1.3,1.932a8.1,8.1,0,0,0-4.563-1.5c-2,0-3.23.9-3.23,2.3,0,1.432.933,2.1,3.764,2.831,3.7.933,5.829,2.4,5.829,5.463,0,3.664-3.364,5.329-6.929,5.329a9.734,9.734,0,0,1-6.628-2.3l1.632-1.865a7.963,7.963,0,0,0,4.93,1.7c2.3,0,3.765-1,3.765-2.665,0-1.731-.866-2.4-4.264-3.3-3.8-1-5.3-2.632-5.3-5.1,0-2.8,2.7-4.83,6.329-4.83A9.32,9.32,0,0,1,182.025,91.39Z" transform="translate(-1.753 -3.485)"/><path d="M195.711,106.545a6.684,6.684,0,0,1-3.93,1.2c-2.965,0-4.73-1.731-4.73-5V92.156h-3.064V89.791h3.064V85.827l3.064-.366v4.33h4.164l-.333,2.365h-3.831v10.459c0,1.766.566,2.6,2.1,2.6a4.787,4.787,0,0,0,2.332-.7Z" transform="translate(-1.753 -3.485)"/><path d="M211.565,99.618H200.373c.3,4.063,2.2,5.629,4.729,5.629a7.385,7.385,0,0,0,4.563-1.532L211,105.546a9.566,9.566,0,0,1-6.129,2.2c-4.9,0-7.762-3.431-7.762-8.993,0-5.463,2.765-9.36,7.295-9.36,4.73,0,7.229,3.3,7.229,8.66C211.631,98.651,211.6,99.217,211.565,99.618ZM208.6,97.153c0-3.432-1.366-5.33-4.131-5.33-2.331,0-3.863,1.632-4.1,5.529H208.6Z" transform="translate(-1.753 -3.485)"/><path d="M238.909,94.754v12.591h-3.064V95.187c0-2.632-1.133-3.4-2.465-3.4-1.9,0-2.932,1.232-4.131,3.1v12.458h-3.064V95.187c0-2.632-1.133-3.4-2.465-3.4-1.9,0-2.965,1.232-4.131,3.1v12.458h-3.064V89.791h2.632l.267,2.565a5.868,5.868,0,0,1,5.063-2.965,4.424,4.424,0,0,1,4.43,3.164c1.266-1.9,2.864-3.164,5.229-3.164C237.01,89.391,238.909,91.457,238.909,94.754Z" transform="translate(-1.753 -3.485)"/><path d="M49.009,135.293a12.018,12.018,0,0,1,.566-3.78,8.359,8.359,0,0,1,1.632-2.931,7.4,7.4,0,0,1,2.614-1.9,9.449,9.449,0,0,1,7.011-.017,7.262,7.262,0,0,1,2.6,1.882,8.163,8.163,0,0,1,1.615,2.931,12.463,12.463,0,0,1,.55,3.813,12.248,12.248,0,0,1-.566,3.847A8.36,8.36,0,0,1,63.4,142.07a7.231,7.231,0,0,1-2.6,1.881,8.686,8.686,0,0,1-3.5.667,8.89,8.89,0,0,1-3.5-.649,7.175,7.175,0,0,1-2.6-1.849,8.172,8.172,0,0,1-1.632-2.931A12.518,12.518,0,0,1,49.009,135.293Zm12.123,0a8.655,8.655,0,0,0-.949-4.6,3.166,3.166,0,0,0-2.848-1.466,3.246,3.246,0,0,0-2.881,1.466,8.42,8.42,0,0,0-.982,4.6,8.6,8.6,0,0,0,.966,4.646,3.555,3.555,0,0,0,5.729,0A8.6,8.6,0,0,0,61.132,135.293Z" transform="translate(-1.753 -3.485)"/><path d="M76.384,118.974a10.308,10.308,0,0,1,2.515.282,14.169,14.169,0,0,1,2.181.75l-1.2,2.864a8.53,8.53,0,0,0-1.6-.517,7.009,7.009,0,0,0-1.4-.15,2.5,2.5,0,0,0-1.915.583,2.741,2.741,0,0,0-.517,1.849V126.5h4.2l-.466,3.063h-3.73v14.554H70.19V129.564H67.425V126.5H70.19v-1.932a6.014,6.014,0,0,1,.4-2.215,4.986,4.986,0,0,1,1.166-1.765,5.4,5.4,0,0,1,1.932-1.183A7.737,7.737,0,0,1,76.384,118.974Z" transform="translate(-1.753 -3.485)"/><path d="M107.623,144.118l-.732-11.557q-.1-1.564-.149-3.13t-.05-2.731V126a4.063,4.063,0,0,1,.033-.566h-.133l-4.264,16.286H98.1l-4.462-16.286H93.5a11.169,11.169,0,0,1,.083,1.249q.018.784.018,1.749,0,1.066-.034,2.248t-.1,2.281L92.8,144.118H88.54l1.832-23.013h5.661l4.2,16.086h.133l4.029-16.086h5.729l1.8,23.013Z" transform="translate(-1.753 -3.485)"/><path d="M119.312,136.625a5.9,5.9,0,0,0,1.4,3.63,3.965,3.965,0,0,0,2.931,1.133,6.123,6.123,0,0,0,2.131-.367,7.885,7.885,0,0,0,2.133-1.265l1.83,2.563a10.84,10.84,0,0,1-2.848,1.666,10.25,10.25,0,0,1-7.227-.051,7.21,7.21,0,0,1-2.646-1.914,8.146,8.146,0,0,1-1.6-2.931,12.527,12.527,0,0,1-.532-3.764,12.689,12.689,0,0,1,.517-3.68,8.526,8.526,0,0,1,1.531-2.965,7.254,7.254,0,0,1,2.5-1.965A7.69,7.69,0,0,1,122.81,126a7.04,7.04,0,0,1,5.645,2.348,9.735,9.735,0,0,1,2.014,6.545c0,.288-.01.588-.033.9s-.045.589-.066.833Zm3.531-7.593a3,3,0,0,0-2.465,1.165,6.57,6.57,0,0,0-1.1,3.663h6.961a7.141,7.141,0,0,0-.8-3.563A2.794,2.794,0,0,0,122.843,129.032Z" transform="translate(-1.753 -3.485)"/><path d="M139.827,137.291l-3.53,6.827h-4.7l5.862-9.292L132.2,126.5h4.862l2.931,5.861h.134l2.9-5.861h4.629l-5.062,8.192,5.861,9.425h-4.929l-3.563-6.827Z" transform="translate(-1.753 -3.485)"/><path d="M155.646,120.206a2.484,2.484,0,0,1-.767,1.849,2.887,2.887,0,0,1-3.88,0,2.513,2.513,0,0,1-.749-1.849,2.472,2.472,0,0,1,.749-1.814,2.884,2.884,0,0,1,3.88,0A2.444,2.444,0,0,1,155.646,120.206Zm-4.829,23.912V126.5h4.263v17.617Z" transform="translate(-1.753 -3.485)"/><path d="M167.568,141.154a5.065,5.065,0,0,0,1.731-.3,7.03,7.03,0,0,0,1.832-1.065l1.965,2.8a8.775,8.775,0,0,1-5.629,2.032,9.2,9.2,0,0,1-3.63-.667,7.164,7.164,0,0,1-2.631-1.881,8.173,8.173,0,0,1-1.615-2.914,13.1,13.1,0,0,1,0-7.51,8.5,8.5,0,0,1,1.615-2.965,7.529,7.529,0,0,1,2.631-1.965A8.49,8.49,0,0,1,167.4,126a8.943,8.943,0,0,1,3.03.5,8.66,8.66,0,0,1,2.665,1.565l-1.932,2.6a5.291,5.291,0,0,0-3.563-1.3,3.5,3.5,0,0,0-2.964,1.415,7.777,7.777,0,0,0-1.066,4.612q0,3.2,1.066,4.479A3.6,3.6,0,0,0,167.568,141.154Z" transform="translate(-1.753 -3.485)"/><path d="M174.695,135.293a11.99,11.99,0,0,1,.566-3.78,8.343,8.343,0,0,1,1.632-2.931,7.4,7.4,0,0,1,2.614-1.9,9.449,9.449,0,0,1,7.011-.017,7.262,7.262,0,0,1,2.6,1.882,8.163,8.163,0,0,1,1.615,2.931,12.463,12.463,0,0,1,.55,3.813,12.248,12.248,0,0,1-.566,3.847,8.374,8.374,0,0,1-1.632,2.931,7.247,7.247,0,0,1-2.6,1.881,8.691,8.691,0,0,1-3.5.667,8.894,8.894,0,0,1-3.5-.649,7.183,7.183,0,0,1-2.6-1.849,8.157,8.157,0,0,1-1.632-2.931A12.489,12.489,0,0,1,174.695,135.293Zm12.123,0a8.655,8.655,0,0,0-.949-4.6,3.166,3.166,0,0,0-2.848-1.466,3.247,3.247,0,0,0-2.881,1.466,8.412,8.412,0,0,0-.982,4.6,8.6,8.6,0,0,0,.966,4.646,3.555,3.555,0,0,0,5.729,0A8.6,8.6,0,0,0,186.818,135.293Z" transform="translate(-1.753 -3.485)"/><circle class="cls-1" cx="118.578" cy="35.642" r="35.642"/><path class="cls-2" d="M155.973,39.127A35.644,35.644,0,0,0,135.827,7.022V71.233A35.644,35.644,0,0,0,155.973,39.127Z" transform="translate(-1.753 -3.485)"/><path class="cls-3" d="M84.689,39.127a35.644,35.644,0,0,0,20.146,32.105V7.022A35.644,35.644,0,0,0,84.689,39.127Z" transform="translate(-1.753 -3.485)"/><path class="cls-3" d="M111.033,39.127a9.3,9.3,0,0,0,18.6,0v-3.1h-18.6Z" transform="translate(-1.753 -3.485)"/><path class="cls-4" d="M132.728,32.929h-9.3a3.1,3.1,0,1,0-6.2,0h-9.3a3.189,3.189,0,0,0,3.2,3.1h-.1a3.1,3.1,0,0,0,3.1,3.1,3.1,3.1,0,0,0,3.1,3.1h6.2a3.1,3.1,0,0,0,3.1-3.1,3.1,3.1,0,0,0,3.1-3.1h-.1A3.189,3.189,0,0,0,132.728,32.929Z" transform="translate(-1.753 -3.485)"/><script xmlns="">
    new (class{constructor(e){this.client=window[Symbol.for(e)],this.bindEvents()}bindEvents(){const e=this;var t;history.pushState=(t=history.pushState,function(){const n=t.apply(this,arguments);return e.onUrlChange(),n});let n=!0;history.replaceState=(t=&gt;function(s){var r=t.apply(this,arguments);return n||e.onUrlChange(),n=!1,r})(history.replaceState),window.addEventListener("hashchange",(function(){e.onUrlChange()}))}onUrlChange(){this.client.emitToBg("TAB_STATE__INTERNAL_CONTENT_URL_REWRITED")}})('MARIO_POST_CLIENT_{fca67f41-776b-438a-9382-662171858615}')
</script></svg>
