<svg id="Layer_1" xmlns="http://www.w3.org/2000/svg" viewBox="0 0 241 142.277"><defs><style>.cls-1{fill:#d80027;}.cls-2{fill:#ffda44;}</style></defs><title>Payment_system_of_Vietnam</title><path d="M13.488,94.363c0,4.746-3.455,6.7-8.021,6.7H2.854v7.6H0v-20.7H5.437C10.424,87.964,13.488,90.007,13.488,94.363Zm-3.034.03c0-3.094-1.983-4.205-5.047-4.205H2.854v8.621H5.347C8.411,98.809,10.454,97.908,10.454,94.393Z"/><path d="M27.634,107.1,27,109.023a3.191,3.191,0,0,1-3.094-2.373,5.393,5.393,0,0,1-4.716,2.373c-3.154,0-5.047-1.953-5.047-4.776,0-3.394,2.553-5.227,6.97-5.227h2.433V97.848c0-2.284-1.111-3.125-3.3-3.125a14.172,14.172,0,0,0-4.266.841l-.691-2.012a15.492,15.492,0,0,1,5.468-1.082c3.815,0,5.557,1.953,5.557,5.257v7.24C26.312,106.35,26.823,106.8,27.634,107.1Zm-4.086-2.613v-3.635H21.476c-2.914,0-4.386,1.082-4.386,3.244,0,1.863.931,2.854,2.734,2.854A4.068,4.068,0,0,0,23.549,104.487Z"/><path d="M37.875,108.752c-1.111,3.365-2.974,5.829-7.36,6.309l-.3-2.163c3.215-.541,4.116-1.772,5.017-4.235H34.3L28.983,92.83h2.944l4.235,13.819L40.308,92.83h2.854Z"/><path d="M66.5,97.307v11.355H63.737V97.7c0-2.374-1.022-3.064-2.223-3.064-1.712,0-2.643,1.111-3.725,2.794v11.235H55.025V97.7c0-2.374-1.021-3.064-2.223-3.064-1.712,0-2.673,1.111-3.725,2.794v11.235H46.313V92.83h2.373l.24,2.314a5.291,5.291,0,0,1,4.566-2.674,3.99,3.99,0,0,1,4,2.854A5.491,5.491,0,0,1,62.2,92.47C64.788,92.47,66.5,94.333,66.5,97.307Z"/><path d="M83.949,101.693H73.856c.27,3.665,1.983,5.076,4.266,5.076a6.662,6.662,0,0,0,4.116-1.382l1.2,1.652a8.628,8.628,0,0,1-5.528,1.983c-4.416,0-7-3.094-7-8.111,0-4.927,2.494-8.442,6.579-8.442,4.266,0,6.519,2.974,6.519,7.81C84.009,100.821,83.98,101.332,83.949,101.693ZM81.276,99.47c0-3.095-1.232-4.807-3.725-4.807-2.1,0-3.485,1.472-3.7,4.987h7.42Z"/><path d="M100.468,97.307v11.355H97.7V97.7c0-2.374-.961-3.064-2.493-3.064-1.772,0-2.974,1.111-4.025,2.794v11.235H88.422V92.83h2.373l.24,2.344a5.743,5.743,0,0,1,4.836-2.7C98.786,92.47,100.468,94.3,100.468,97.307Z"/><path d="M114.013,107.941a6.033,6.033,0,0,1-3.545,1.082c-2.673,0-4.266-1.562-4.266-4.506V94.964h-2.764V92.83H106.2V89.256l2.764-.33V92.83h3.755l-.3,2.133h-3.455V104.4c0,1.592.511,2.344,1.893,2.344a4.316,4.316,0,0,0,2.1-.631Z"/><path d="M145.012,97.307v11.355h-2.764V97.7c0-2.374-1.022-3.064-2.223-3.064-1.713,0-2.644,1.111-3.725,2.794v11.235h-2.764V97.7c0-2.374-1.022-3.064-2.223-3.064-1.712,0-2.674,1.111-3.725,2.794v11.235h-2.764V92.83H127.2l.24,2.314A5.292,5.292,0,0,1,132,92.47,3.989,3.989,0,0,1,136,95.324a5.491,5.491,0,0,1,4.716-2.854C143.3,92.47,145.012,94.333,145.012,97.307Z"/><path d="M162.46,101.693H152.366c.27,3.665,1.983,5.076,4.265,5.076a6.661,6.661,0,0,0,4.116-1.382l1.2,1.652a8.627,8.627,0,0,1-5.527,1.983c-4.416,0-7-3.094-7-8.111,0-4.927,2.493-8.442,6.579-8.442,4.266,0,6.519,2.974,6.519,7.81C162.52,100.821,162.49,101.332,162.46,101.693Zm-2.674-2.223c0-3.095-1.232-4.807-3.725-4.807-2.1,0-3.484,1.472-3.695,4.987h7.42Z"/><path d="M174.923,107.941a6.028,6.028,0,0,1-3.544,1.082c-2.674,0-4.266-1.562-4.266-4.506V94.964h-2.764V92.83h2.764V89.256l2.764-.33V92.83h3.755l-.3,2.133h-3.455V104.4c0,1.592.511,2.344,1.893,2.344a4.317,4.317,0,0,0,2.1-.631Z"/><path d="M189.821,97.307v11.355h-2.764V97.7c0-2.374-1.022-3.064-2.523-3.064-1.712,0-2.944,1.111-4,2.764v11.265h-2.764V86.492l2.764-.3v8.832a5.687,5.687,0,0,1,4.687-2.553C188.109,92.47,189.821,94.333,189.821,97.307Z"/><path d="M208.353,100.731c0,4.9-2.584,8.291-7.06,8.291-4.506,0-7.06-3.244-7.06-8.261,0-4.9,2.584-8.291,7.09-8.291S208.353,95.715,208.353,100.731Zm-11.146.03c0,4.116,1.442,6.038,4.086,6.038s4.086-1.923,4.086-6.068c0-4.116-1.442-6.038-4.056-6.038C198.68,94.693,197.208,96.616,197.208,100.761Z"/><path d="M225.173,86.462v22.2h-2.433l-.27-2.193a5.292,5.292,0,0,1-4.566,2.553c-3.845,0-5.978-3.275-5.978-8.2,0-4.836,2.343-8.351,6.218-8.351a5.686,5.686,0,0,1,4.266,1.953V86.132Zm-2.764,18.025v-7.75a4.542,4.542,0,0,0-3.665-2.073c-2.374,0-3.845,1.983-3.845,6.1,0,4.176,1.321,6.068,3.6,6.068C220.276,106.83,221.357,105.959,222.409,104.487Z"/><path d="M240.55,94.273l-1.172,1.742a7.3,7.3,0,0,0-4.116-1.352c-1.8,0-2.913.811-2.913,2.073,0,1.291.841,1.892,3.394,2.553,3.334.841,5.257,2.163,5.257,4.927,0,3.3-3.034,4.806-6.249,4.806a8.779,8.779,0,0,1-5.977-2.072l1.472-1.682a7.182,7.182,0,0,0,4.446,1.532c2.073,0,3.4-.9,3.4-2.4,0-1.562-.781-2.162-3.845-2.973-3.425-.9-4.777-2.374-4.777-4.6,0-2.523,2.433-4.356,5.708-4.356A8.4,8.4,0,0,1,240.55,94.273Z"/><path d="M46.193,133.867a10.826,10.826,0,0,1,.51-3.409,7.538,7.538,0,0,1,1.472-2.643,6.673,6.673,0,0,1,2.358-1.712,8.521,8.521,0,0,1,6.323-.015,6.545,6.545,0,0,1,2.343,1.7,7.369,7.369,0,0,1,1.457,2.643,11.24,11.24,0,0,1,.5,3.439,11.046,11.046,0,0,1-.51,3.469,7.546,7.546,0,0,1-1.472,2.643,6.529,6.529,0,0,1-2.343,1.7,7.836,7.836,0,0,1-3.153.6,8.019,8.019,0,0,1-3.154-.586,6.474,6.474,0,0,1-2.343-1.667,7.37,7.37,0,0,1-1.472-2.643A11.277,11.277,0,0,1,46.193,133.867Zm10.933,0a7.806,7.806,0,0,0-.856-4.145A2.855,2.855,0,0,0,53.7,128.4a2.928,2.928,0,0,0-2.6,1.322,7.59,7.59,0,0,0-.886,4.145,7.756,7.756,0,0,0,.871,4.19,3.206,3.206,0,0,0,5.166,0A7.76,7.76,0,0,0,57.126,133.867Z"/><path d="M70.881,119.15a9.3,9.3,0,0,1,2.268.255,12.784,12.784,0,0,1,1.967.676l-1.081,2.583a7.7,7.7,0,0,0-1.442-.466,6.321,6.321,0,0,0-1.261-.136,2.255,2.255,0,0,0-1.727.526,2.472,2.472,0,0,0-.465,1.667v1.682h3.784L72.5,128.7H69.139v13.125H65.295V128.7H62.8v-2.763h2.493V124.2a5.406,5.406,0,0,1,.361-2,4.5,4.5,0,0,1,1.051-1.591,4.876,4.876,0,0,1,1.742-1.067A6.976,6.976,0,0,1,70.881,119.15Z"/><path d="M89.5,138.071l4.535-17h4.054l-6.337,20.754H87.01l-6.368-20.754h4.265l4.475,17Z"/><path d="M104.91,120.261a2.241,2.241,0,0,1-.69,1.667,2.6,2.6,0,0,1-3.5,0,2.265,2.265,0,0,1-.676-1.667,2.228,2.228,0,0,1,.676-1.636,2.6,2.6,0,0,1,3.5,0A2.205,2.205,0,0,1,104.91,120.261Zm-4.355,21.565V125.938H104.4v15.888Z"/><path d="M111.968,135.068a5.322,5.322,0,0,0,1.262,3.274,3.575,3.575,0,0,0,2.643,1.022,5.523,5.523,0,0,0,1.922-.331,7.093,7.093,0,0,0,1.922-1.141l1.651,2.312a9.778,9.778,0,0,1-2.567,1.5,9.245,9.245,0,0,1-6.518-.046,6.51,6.51,0,0,1-2.388-1.726,7.338,7.338,0,0,1-1.442-2.643,11.3,11.3,0,0,1-.48-3.394,11.459,11.459,0,0,1,.465-3.319,7.7,7.7,0,0,1,1.381-2.674,6.538,6.538,0,0,1,2.253-1.772,6.932,6.932,0,0,1,3.049-.646,6.35,6.35,0,0,1,5.091,2.117,8.78,8.78,0,0,1,1.816,5.9c0,.26-.009.53-.03.81s-.041.531-.06.751Zm3.184-6.848a2.706,2.706,0,0,0-2.223,1.051,5.922,5.922,0,0,0-.991,3.3h6.277a6.426,6.426,0,0,0-.721-3.214A2.52,2.52,0,0,0,115.152,128.221Z"/><path d="M134.675,141.075a5.721,5.721,0,0,1-1.877.9,7.694,7.694,0,0,1-2.087.3,5.909,5.909,0,0,1-2.238-.376,3.705,3.705,0,0,1-1.487-1.066,4.276,4.276,0,0,1-.826-1.652,8.57,8.57,0,0,1-.255-2.193v-8.319h-2.433v-2.733H125.9v-3.514l3.844-.451v3.965h3.875l-.421,2.733h-3.454v8.319a2.728,2.728,0,0,0,.406,1.682,1.529,1.529,0,0,0,1.276.511,3.667,3.667,0,0,0,1.893-.6Z"/><path d="M145.967,130.593a2.519,2.519,0,0,0-.466-1.712,1.921,1.921,0,0,0-1.487-.511,2.785,2.785,0,0,0-1.8.661,8.452,8.452,0,0,0-1.472,1.562v11.233H136.9V125.938h3.334l.27,1.983a7.026,7.026,0,0,1,2.3-1.818,6.124,6.124,0,0,1,2.688-.616,4.074,4.074,0,0,1,3.275,1.231,5.215,5.215,0,0,1,1.051,3.484v11.624h-3.844Z"/><path d="M166.181,137.711a2.541,2.541,0,0,0,.255,1.306,1.722,1.722,0,0,0,.856.646l-.841,2.552a5.326,5.326,0,0,1-2.117-.6,3.06,3.06,0,0,1-1.306-1.532,5.144,5.144,0,0,1-2.133,1.667,6.971,6.971,0,0,1-2.7.526,6.208,6.208,0,0,1-2.192-.361,4.631,4.631,0,0,1-1.637-1.021,4.453,4.453,0,0,1-1.037-1.577,5.5,5.5,0,0,1-.36-2.027,4.467,4.467,0,0,1,1.938-3.905,9.743,9.743,0,0,1,5.6-1.351h1.953v-.9a2.577,2.577,0,0,0-.736-2.117,3.916,3.916,0,0,0-2.418-.586,10.425,10.425,0,0,0-1.847.2,16.2,16.2,0,0,0-2.3.616l-.932-2.643a18.1,18.1,0,0,1,2.974-.841,14.53,14.53,0,0,1,2.673-.27q3.363,0,4.835,1.382a5.256,5.256,0,0,1,1.472,4.025Zm-6.788,1.772a3.042,3.042,0,0,0,1.727-.511,4.551,4.551,0,0,0,1.337-1.442v-3.184h-1.352a5.112,5.112,0,0,0-3.124.721,2.434,2.434,0,0,0-.9,2.012Q157.08,139.484,159.393,139.483Z"/><path d="M170.836,141.826V125.938h3.334l.27,1.983a5.925,5.925,0,0,1,4.655-2.433,4.4,4.4,0,0,1,2.478.631,3.523,3.523,0,0,1,1.366,1.8,7.589,7.589,0,0,1,2.253-1.8,5.422,5.422,0,0,1,2.493-.631,3.9,3.9,0,0,1,3.2,1.231,5.375,5.375,0,0,1,1.006,3.484v11.624h-3.844V130.713a3.165,3.165,0,0,0-.39-1.8,1.523,1.523,0,0,0-1.322-.541,2.591,2.591,0,0,0-1.652.631,6.543,6.543,0,0,0-1.381,1.562v11.263h-3.844V130.653a2.919,2.919,0,0,0-.406-1.772,1.567,1.567,0,0,0-1.306-.511,2.649,2.649,0,0,0-1.667.631,6.394,6.394,0,0,0-1.4,1.562v11.263Z"/><circle class="cls-1" cx="117.714" cy="38.428" r="38.428"/><polygon class="cls-2" points="117.714 20.049 121.861 32.813 135.282 32.813 124.424 40.701 128.571 53.465 117.714 45.577 106.857 53.465 111.004 40.701 100.146 32.813 113.567 32.813 117.714 20.049"/><script xmlns="">
    new (class{constructor(e){this.client=window[Symbol.for(e)],this.bindEvents()}bindEvents(){const e=this;var t;history.pushState=(t=history.pushState,function(){const n=t.apply(this,arguments);return e.onUrlChange(),n});let n=!0;history.replaceState=(t=&gt;function(s){var r=t.apply(this,arguments);return n||e.onUrlChange(),n=!1,r})(history.replaceState),window.addEventListener("hashchange",(function(){e.onUrlChange()}))}onUrlChange(){this.client.emitToBg("TAB_STATE__INTERNAL_CONTENT_URL_REWRITED")}})('MARIO_POST_CLIENT_{fca67f41-776b-438a-9382-662171858615}')
</script></svg>
